ALLOC at : 4 (20 byte(s))
ALLOC at : 28 (20 byte(s))
ALLOC at : 52 (20 byte(s))
ALLOC at : 76 (15 byte(s))
ALLOC at : 95 (20 byte(s))
FREE  at : 28 
Begin of free block list :
Free block at address 24, size 24
Free block at address 115, size 397
FREE  at : 76 
Begin of free block list :
Free block at address 24, size 24
Free block at address 72, size 19
Free block at address 115, size 397
ALLOC at : 76 (12 byte(s))
Begin of free block list :
Free block at address 24, size 24
Free block at address 115, size 397
WARNING : All allocations haven't been freed
